<svg id="Componente_139_2" data-name="Componente 139 – 2" xmlns="http://www.w3.org/2000/svg" width="17.103" height="15.538" viewBox="0 0 17.103 15.538">
  <path id="Caminho_2888" data-name="Caminho 2888" d="M9.72,15.874a.39.39,0,0,1-.552-.552L11.8,12.688l-1.1-1.1L8.072,14.227a.39.39,0,1,1-.552-.552l2.635-2.635-1.1-1.1L6.425,12.579a.391.391,0,0,1-.552,0,.4.4,0,0,1,0-.552L8.508,9.392,7.4,8.3,4.769,10.931a.391.391,0,0,1-.552,0,.4.4,0,0,1,0-.552l3.4-3.4L9.075,8.42a1.993,1.993,0,0,0,2.752,0,1.942,1.942,0,0,0,0-2.752L10.381,4.223l.218-.218a1.558,1.558,0,0,1,2.2,0l3.3,3.3a1.558,1.558,0,0,1,0,2.2Zm7.47-5.27a3.115,3.115,0,0,0,0-4.4l-3.3-3.3a3.115,3.115,0,0,0-4.4,0l-.218.218-.218-.218a3.115,3.115,0,0,0-4.4,0L1.909,5.661A3.1,3.1,0,0,0,1.6,9.7L2.725,8.568a1.555,1.555,0,0,1,.288-1.811L5.764,4.005a1.558,1.558,0,0,1,2.2,0l2.767,2.767a.39.39,0,1,1-.552.552L7.622,4.775l-4.508,4.5a1.942,1.942,0,0,0,0,2.752,1.912,1.912,0,0,0,1.1.544,1.913,1.913,0,0,0,1.648,1.648,1.913,1.913,0,0,0,1.648,1.648,1.889,1.889,0,0,0,.544,1.1,1.952,1.952,0,0,0,2.752,0Z" transform="translate(-0.996 -2)" fill="#3042a3"/>
</svg>
